…
    ## # A tibble: 3 × 2
    ##   wheel           n_obs
    ##   <chr>           <int>
    ## 1 gwynnda_trash     263
    ## 2 mr_trash          652
    ## 3 professor_trash   120

``` r
trashwheel_df %>%
  select(dumpster, month, year, weight_tons, cigarette_butts, wheel)
```

    ## # A tibble: 1,035 × 6
    ##    dumpster month  year weight_tons cigarette_butts wheel   
    ##       <dbl> <chr> <int>       <dbl>           <dbl> <chr>   
    ##  1        1 May    2014        4.31          126000 mr_trash
    ##  2        2 May    2014        2.74           91000 mr_trash
    ##  3        3 May    2014        3.45          105000 mr_trash
    ##  4        4 May    2014        3.1           100000 mr_trash
    ##  5        5 May    2014        4.06          120000 mr_trash
    ##  6        6 May    2014        2.71           90000 mr_trash
    ##  7        7 May    2014        1.91           56000 mr_trash
    ##  8        8 May    2014        3.7           112000 mr_trash
    ##  9        9 June   2014        2.52           98000 mr_trash
    ## 10       10 June   2014        3.76          130000 mr_trash
    ## # ℹ 1,025 more rows
…
